------------------------------------------------------------------------
r1087850 | lueck | 2010-02-09 17:18:39 +0000 (Tue, 09 Feb 2010) | 1 line

doc backport from trunk
------------------------------------------------------------------------
